%YAML 1.1
%TAG !u! tag:unity3d.com,2011:
--- !u!21 &2100000
Material:
  serializedVersion: 6
  m_ObjectHideFlags: 0
  m_PrefabParentObject: {fileID: 0}
  m_PrefabInternal: {fileID: 0}
  m_Name: spidereye
  m_Shader: {fileID: 4800000, guid: f1f3948b20c230044bda31b620ddd37f, type: 3}
  m_ShaderKeywords: _SPECULARHIGHLIGHTS_ON _USEAMBIENT_ON _USECOLOR_ON _USEDIFFUSE_ON
    _USEMAINTEX_ON _USERIMLIGHTING_ON
  m_LightmapFlags: 4
  m_EnableInstancingVariants: 0
  m_CustomRenderQueue: -1
  stringTagMap: {}
  disabledShaderPasses: []
  m_SavedProperties:
    serializedVersion: 3
    m_TexEnvs:
    - _BumpMap:
        m_Texture: {fileID: 0}
        m_Scale: {x: 1, y: 1}
        m_Offset: {x: 0, y: 0}
    - _CubeMap:
        m_Texture: {fileID: 0}
        m_Scale: {x: 1, y: 1}
        m_Offset: {x: 0, y: 0}
    - _DetailAlbedoMap:
        m_Texture: {fileID: 0}
        m_Scale: {x: 1, y: 1}
        m_Offset: {x: 0, y: 0}
    - _DetailMask:
        m_Texture: {fileID: 0}
        m_Scale: {x: 1, y: 1}
        m_Offset: {x: 0, y: 0}
    - _DetailNormalMap:
        m_Texture: {fileID: 0}
        m_Scale: {x: 1, y: 1}
        m_Offset: {x: 0, y: 0}
    - _EmissionMap:
        m_Texture: {fileID: 0}
        m_Scale: {x: 1, y: 1}
        m_Offset: {x: 0, y: 0}
    - _EmissionTex:
        m_Texture: {fileID: 2800000, guid: 07232535b53faaf4991f4b0c1c8ad880, type: 3}
        m_Scale: {x: 1, y: 1}
        m_Offset: {x: 0, y: 0}
    - _GlossMap:
        m_Texture: {fileID: 0}
        m_Scale: {x: 1, y: 1}
        m_Offset: {x: 0, y: 0}
    - _MainTex:
        m_Texture: {fileID: 2800000, guid: 40d7f27f614cc1043a1f7e19074f461c, type: 3}
        m_Scale: {x: 1, y: 1}
        m_Offset: {x: 0, y: 0}
    - _MainTex1:
        m_Texture: {fileID: 0}
        m_Scale: {x: 1, y: 1}
        m_Offset: {x: 0, y: 0}
    - _MetallicGlossMap:
        m_Texture: {fileID: 0}
        m_Scale: {x: 1, y: 1}
        m_Offset: {x: 0, y: 0}
    - _OcclusionMap:
        m_Texture: {fileID: 0}
        m_Scale: {x: 1, y: 1}
        m_Offset: {x: 0, y: 0}
    - _ParallaxMap:
        m_Texture: {fileID: 0}
        m_Scale: {x: 1, y: 1}
        m_Offset: {x: 0, y: 0}
    - _SpecularMap:
        m_Texture: {fileID: 0}
        m_Scale: {x: 1, y: 1}
        m_Offset: {x: 0, y: 0}
    m_Floats:
    - _AlphaTest: 0
    - _BlendOp: 0
    - _BumpScale: 1
    - _CalibrationSpaceReflections: 0
    - _ColorWriteMask: 15
    - _Cull: 2
    - _Cutoff: 0.5
    - _DetailNormalMapScale: 1
    - _DstBlend: 0
    - _ForcePerPixel: 0
    - _Gloss: 1
    - _GlossMapScale: 1
    - _Glossiness: 0.5
    - _GlossyReflections: 1
    - _Highlight: 0
    - _Metallic: 0
    - _Mode: 0
    - _OcclusionStrength: 1
    - _Parallax: 0.02
    - _ReflectionScale: 2
    - _RimPower: 0.7
    - _Shade4: 0
    - _Shininess: 3
    - _SmoothnessTextureChannel: 0
    - _Specular: 10
    - _SpecularHighlights: 1
    - _SrcBlend: 1
    - _UVSec: 0
    - _UseAmbient: 1
    - _UseBumpMap: 0
    - _UseColor: 1
    - _UseDiffuse: 1
    - _UseEmissionColor: 0
    - _UseEmissionMap: 0
    - _UseEmissionTex: 0
    - _UseGlossMap: 0
    - _UseMainColor: 0
    - _UseMainTex: 0
    - _UseOcclusionMap: 0
    - _UseReflections: 0
    - _UseRimLighting: 1
    - _UseSpecularMap: 0
    - _UseVertexColor: 0
    - _ZTest: 4
    - _ZWrite: 1
    m_Colors:
    - _Color: {r: 0.0036179998, g: 0.004592, b: 0.006, a: 1}
    - _EmissionColor: {r: 0, g: 0, b: 0, a: 1}
    - _HighlightColor: {r: 1, g: 1, b: 1, a: 1}
    - _RimColor: {r: 1, g: 1, b: 1, a: 1}
    - _SpecColor: {r: 0.5, g: 0.5, b: 0.5, a: 1}
    - _Specular: {r: 0.08, g: 0.075, b: 0.065, a: 1}
    - _TextureScaleOffset: {r: 1, g: 1, b: 0, a: 0}
