%YAML 1.1
%TAG !u! tag:unity3d.com,2011:
--- !u!21 &2100000
Material:
  serializedVersion: 6
  m_ObjectHideFlags: 0
  m_PrefabParentObject: {fileID: 0}
  m_PrefabInternal: {fileID: 0}
  m_Name: glow
  m_Shader: {fileID: 4800000, guid: 5c2339e78c48ab14bb095cea2be5fb1a, type: 3}
  m_ShaderKeywords: _USECOLOR_ON _USEDIFFUSE_ON _USEEMISSIONCOLOR_ON
  m_LightmapFlags: 4
  m_EnableInstancingVariants: 0
  m_DoubleSidedGI: 0
  m_CustomRenderQueue: -1
  stringTagMap: {}
  disabledShaderPasses: []
  m_SavedProperties:
    serializedVersion: 3
    m_TexEnvs:
    - _BumpMap:
        m_Texture: {fileID: 0}
        m_Scale: {x: 1, y: 1}
        m_Offset: {x: 0, y: 0}
    - _CubeMap:
        m_Texture: {fileID: 0}
        m_Scale: {x: 1, y: 1}
        m_Offset: {x: 0, y: 0}
    - _DetailAlbedoMap:
        m_Texture: {fileID: 0}
        m_Scale: {x: 1, y: 1}
        m_Offset: {x: 0, y: 0}
    - _DetailMask:
        m_Texture: {fileID: 0}
        m_Scale: {x: 1, y: 1}
        m_Offset: {x: 0, y: 0}
    - _DetailNormalMap:
        m_Texture: {fileID: 0}
        m_Scale: {x: 1, y: 1}
        m_Offset: {x: 0, y: 0}
    - _EmissionMap:
        m_Texture: {fileID: 0}
        m_Scale: {x: 1, y: 1}
        m_Offset: {x: 0, y: 0}
    - _GlossMap:
        m_Texture: {fileID: 0}
        m_Scale: {x: 1, y: 1}
        m_Offset: {x: 0, y: 0}
    - _MainTex:
        m_Texture: {fileID: 0}
        m_Scale: {x: 1, y: 1}
        m_Offset: {x: 0, y: 0}
    - _MetallicGlossMap:
        m_Texture: {fileID: 0}
        m_Scale: {x: 1, y: 1}
        m_Offset: {x: 0, y: 0}
    - _OcclusionMap:
        m_Texture: {fileID: 0}
        m_Scale: {x: 1, y: 1}
        m_Offset: {x: 0, y: 0}
    - _ParallaxMap:
        m_Texture: {fileID: 0}
        m_Scale: {x: 1, y: 1}
        m_Offset: {x: 0, y: 0}
    - _SpecularMap:
        m_Texture: {fileID: 0}
        m_Scale: {x: 1, y: 1}
        m_Offset: {x: 0, y: 0}
    - _V_WIRE_AoMap:
        m_Texture: {fileID: 0}
        m_Scale: {x: 1, y: 1}
        m_Offset: {x: 0, y: 0}
    - _V_WIRE_NormalMap:
        m_Texture: {fileID: 0}
        m_Scale: {x: 1, y: 1}
        m_Offset: {x: 0, y: 0}
    - _V_WIRE_SourceTex:
        m_Texture: {fileID: 0}
        m_Scale: {x: 1, y: 1}
        m_Offset: {x: 0, y: 0}
    - _V_WIRE_WireTex:
        m_Texture: {fileID: 0}
        m_Scale: {x: 1, y: 1}
        m_Offset: {x: 0, y: 0}
    m_Floats:
    - _AlphaTest: 0
    - _BlendOp: 0
    - _BumpScale: 1
    - _CalibrationSpaceReflections: 0
    - _ColorWriteMask: 15
    - _Cull: 2
    - _Cutoff: 0.5
    - _DetailNormalMapScale: 1
    - _DstBlend: 0
    - _ForcePerPixel: 0
    - _Gloss: 1
    - _GlossMapScale: 1
    - _Glossiness: 0.5
    - _GlossyReflections: 1
    - _Metallic: 0
    - _Mode: 0
    - _OcclusionStrength: 1
    - _Parallax: 0.02
    - _ReflectionScale: 2
    - _RimPower: 0.7
    - _Shade4: 0
    - _SmoothnessTextureChannel: 0
    - _Specular: 10
    - _SpecularHighlights: 0
    - _SrcBlend: 1
    - _UVSec: 0
    - _UseAmbient: 0
    - _UseBumpMap: 0
    - _UseColor: 1
    - _UseDiffuse: 1
    - _UseEmissionColor: 1
    - _UseEmissionMap: 0
    - _UseGlossMap: 0
    - _UseMainColor: 0
    - _UseMainTex: 0
    - _UseOcclusionMap: 0
    - _UseReflections: 0
    - _UseRimLighting: 0
    - _UseSpecularMap: 0
    - _UseVertexColor: 0
    - _V_WIRE_Ao: 0
    - _V_WIRE_AoStrength: 1
    - _V_WIRE_BumpEnumID: 0
    - _V_WIRE_DistanceFade: 0
    - _V_WIRE_DistanceFadeEnd: 10
    - _V_WIRE_DistanceFadeStart: 5
    - _V_WIRE_DynamicGI: 0
    - _V_WIRE_DynamicGIEnumID: 0
    - _V_WIRE_DynamicGIStrength: 0
    - _V_WIRE_DynamicMaskEffectsBaseTexEnumID: 0
    - _V_WIRE_DynamicMaskEffectsBaseTexInvert: 0
    - _V_WIRE_DynamicMaskEnumID: 0
    - _V_WIRE_DynamicMaskInvert: -1
    - _V_WIRE_DynamicMaskSmooth: 1
    - _V_WIRE_DynamicMaskType: 1
    - _V_WIRE_EmissionStrength: 0
    - _V_WIRE_FixedSize: 0
    - _V_WIRE_FresnelBias: 0
    - _V_WIRE_FresnelEnumID: 0
    - _V_WIRE_FresnelInvert: 0
    - _V_WIRE_FresnelPow: 1
    - _V_WIRE_IncludeLightEnumID: 0
    - _V_WIRE_NormalScale: 1
    - _V_WIRE_RenderingOptions_PBREnumID: 0
    - _V_WIRE_Size: 1
    - _V_WIRE_Source_Options: 0
    - _V_WIRE_Tag: 0
    - _V_WIRE_Title_M_Options: 0
    - _V_WIRE_Title_S_Options: 0
    - _V_WIRE_Title_UAR_Options: 0
    - _V_WIRE_Title_V_Options: 0
    - _V_WIRE_Title_W_Options: 0
    - _V_WIRE_TransparencyEnumID: 0
    - _V_WIRE_Transparency_M_Options: 0
    - _V_WIRE_TransparentTex_Alpha_Offset: 0
    - _V_WIRE_TransparentTex_Invert: 0
    - _V_WIRE_TryQuad: 0
    - _V_WIRE_VertexColor: 0
    - _V_WIRE_WireTex_UVSet: 0
    - _V_WIRE_WireVertexColor: 0
    - _ZTest: 4
    - _ZWrite: 1
    m_Colors:
    - _Color: {r: 1, g: 0, b: 0.84827566, a: 1}
    - _EmissionColor: {r: 1, g: 0, b: 0, a: 1}
    - _RimColor: {r: 1, g: 1, b: 1, a: 1}
    - _SpecColor: {r: 0.5, g: 0.5, b: 0.5, a: 1}
    - _TextureScaleOffset: {r: 1, g: 1, b: 0, a: 0}
    - _V_WIRE_Color: {r: 1, g: 0, b: 0.84827566, a: 1}
    - _V_WIRE_MainTex_Scroll: {r: 0, g: 0, b: 0, a: 0}
    - _V_WIRE_ObjectWorldPos: {r: 0, g: 0, b: 0, a: 0}
    - _V_WIRE_SourceTex_Scroll: {r: 0, g: 0, b: 0, a: 0}
    - _V_WIRE_WireTex_Scroll: {r: 0, g: 0, b: 0, a: 0}
